steak_survey
…
## v ggplot2 3.1.0       v purrr   0.3.1  
## v tibble  2.0.1       v dplyr   0.8.0.1
## v tidyr   0.8.3       v stringr 1.4.0  
## v readr   1.3.1       v forcats 0.4.0

## -- Conflicts -------------------------------- tidyverse_conflicts() --
## x dplyr::filter() masks stats::filter()
## x dplyr::lag()    masks stats::lag()

2. Look at the data (steak_survey)

# print out the dataframe
steak_survey

## # A tibble: 550 x 15
##    respondent_id lottery_a smoke alcohol gamble skydiving speed cheated
##            <dbl> <lgl>     <lgl> <lgl>   <lgl>  <lgl>     <lgl> <lgl>  
##  1    3237565956 FALSE     NA    NA      NA     NA        NA    NA     
##  2    3234982343 TRUE      FALSE TRUE    FALSE  FALSE     FALSE FALSE  
##  3    3234973379 TRUE      FALSE TRUE    TRUE   FALSE     TRUE  TRUE   
##  4    3234972383 FALSE     TRUE  TRUE    TRUE   FALSE     TRUE  TRUE   
##  5    3234958833 FALSE     FALSE TRUE    FALSE  FALSE     TRUE  TRUE   
##  6    3234955240 TRUE      FALSE FALSE   FALSE  FALSE     TRUE  FALSE  
##  7    3234955097 TRUE      FALSE TRUE    FALSE  FALSE     TRUE  TRUE   
##  8    3234955010 TRUE      FALSE TRUE    TRUE   TRUE      TRUE  FALSE  
##  9    3234953052 TRUE      TRUE  TRUE    TRUE   FALSE     TRUE  FALSE  
## 10    3234951249 FALSE     FALSE TRUE    TRUE   FALSE     FALSE FALSE  
## # ... with 540 more rows, and 7 more variables: steak <lgl>,
## #   steak_prep <ord>, female <lgl>, age <ord>, hhold_income <fct>,
## #   educ <ord>, region <chr>
…
## Warning: Factor `hhold_income` contains implicit NA, consider using
## `forcats::fct_explicit_na`

## Warning: Factor `hhold_income` contains implicit NA, consider using
## `forcats::fct_explicit_na`

hhold_df

## # A tibble: 30 x 4
## # Groups:   hhold_income [6]
##    hhold_income      steak_prep  amount percent
##    <fct>             <ord>        <int>   <dbl>
##  1 $0 - $24,999      Rare             2  0.0513
##  2 $0 - $24,999      Medium rare     12  0.308 
##  3 $0 - $24,999      Medium          13  0.333 
##  4 $0 - $24,999      Medium Well      9  0.231 
##  5 $0 - $24,999      Well             3  0.0769
##  6 $25,000 - $49,999 Rare             3  0.0508
##  7 $25,000 - $49,999 Medium rare     26  0.441 
##  8 $25,000 - $49,999 Medium          16  0.271 
##  9 $25,000 - $49,999 Medium Well     12  0.203 
## 10 $25,000 - $49,999 Well             2  0.0339
## # ... with 20 more rows

#Separate by education
educate_df <- steak_survey %>%
            filter(steak_prep != "NA", educ != "NA") %>%
            group_by(educ, steak_prep, educ) %>%
            summarise(amount=n()) %>%
            mutate(percent = amount/sum(amount))
educate_df

## # A tibble: 21 x 4
## # Groups:   educ [5]
##    educ                             steak_prep  amount percent
##    <ord>                            <ord>        <int>   <dbl>
##  1 Less than high school degree     Well             1  1     
##  2 High school degree               Rare             1  0.0312
##  3 High school degree               Medium rare     14  0.438 
##  4 High school degree               Medium           9  0.281 
##  5 High school degree               Medium Well      4  0.125 
##  6 High school degree               Well             4  0.125 
##  7 Some college or Associate degree Rare             6  0.0448
##  8 Some college or Associate degree Medium rare     51  0.381 
##  9 Some college or Associate degree Medium          39  0.291 
## 10 Some college or Associate degree Medium Well     26  0.194 
## # ... with 11 more rows

#Separate by region
region_df <- steak_survey %>%
            filter(steak_prep != "NA", region != "NA") %>%
            group_by(region, steak_prep) %>%
            summarise(amount=n()) %>%
            mutate(percent = amount/sum(amount))

region_df

## # A tibble: 41 x 4
## # Groups:   region [9]
##    region             steak_prep  amount percent
##    <chr>              <ord>        <int>   <dbl>
##  1 East North Central Rare             1  0.0154
##  2 East North Central Medium rare     24  0.369 
##  3 East North Central Medium          22  0.338 
##  4 East North Central Medium Well     11  0.169 
##  5 East North Central Well             7  0.108 
##  6 East South Central Medium rare     10  0.5   
##  7 East South Central Medium           4  0.2   
##  8 East South Central Medium Well      3  0.15  
##  9 East South Central Well             3  0.15  
## 10 Middle Atlantic    Rare             6  0.105 
## # ... with 31 more rows
…
